…
获取每年的借阅总数

```{r, eval=FALSE}
seattle_csv |> 
  group_by(CheckoutYear) |> 
  summarise(Checkouts = sum(Checkouts)) |> 
  arrange(CheckoutYear) |> 
  collect()
#> # A tibble: 18 × 2
#>   CheckoutYear Checkouts
#>          <int>     <int>
#> 1         2005   3798685
#> 2         2006   6599318
#> 3         2007   7126627
#> 4         2008   8438486
#> 5         2009   9135167
#> 6         2010   8608966
#> # ℹ 12 more rows
```
…
```{r, eval=FALSE}
# 指定分区存储路径
pq_path <- "data/seattle-library-checkouts"

# 按照借阅年份进行分区，分成18个区块
seattle_csv |>
  group_by(CheckoutYear) |>
  write_dataset(path = pq_path, format = "parquet")

# 展示分好的区块
tibble(
  files = list.files(pq_path, recursive = TRUE),
  size_MB = file.size(file.path(pq_path, files)) / 1024^2
)
#> # A tibble: 18 × 2
#>   files                            size_MB
#>   <chr>                              <dbl>
#> 1 CheckoutYear=2005/part-0.parquet    109.
#> 2 CheckoutYear=2006/part-0.parquet    164.
#> 3 CheckoutYear=2007/part-0.parquet    178.
#> 4 CheckoutYear=2008/part-0.parquet    195.
#> 5 CheckoutYear=2009/part-0.parquet    214.
#> 6 CheckoutYear=2010/part-0.parquet    222.
#> # ℹ 12 more rows
```
…
### 使用Arrow支持的dplyr

```{r, eval=FALSE}
seattle_pq <- open_dataset(pq_path)

# 统计过去五年内每月借出的图书总数
query <- seattle_pq |> 
  filter(CheckoutYear >= 2018, MaterialType == "BOOK") |>
  group_by(CheckoutYear, CheckoutMonth) |>
  summarize(TotalCheckouts = sum(Checkouts)) |>
  arrange(CheckoutYear, CheckoutMonth)

# 获取数据结果
query |> collect()
#> # A tibble: 58 × 3
#> # Groups:   CheckoutYear [5]
#>   CheckoutYear CheckoutMonth TotalCheckouts
#>          <int>         <int>          <int>
#> 1         2018             1         355101
#> 2         2018             2         309813
#> 3         2018             3         344487
#> 4         2018             4         330988
#> 5         2018             5         318049
#> 6         2018             6         341825
#> # ℹ 52 more rows
```
…
