数据获取与预处理 – course
…
# 从其他包加载数据创建数据库表
dbWriteTable(con, "mpg", ggplot2::mpg)
dbWriteTable(con, "diamonds", ggplot2::diamonds)

# 检查数据库中的表
dbListTables(con)

[1] "diamonds" "mpg"     

# 检查表diamonds中的内容
con |> 
  dbReadTable("diamonds") |> 
  as_tibble()

# A tibble: 53,940 × 10
   carat cut       color clarity depth table price     x     y     z
   <dbl> <fct>     <fct> <fct>   <dbl> <dbl> <int> <dbl> <dbl> <dbl>
 1  0.23 Ideal     E     SI2      61.5    55   326  3.95  3.98  2.43
 2  0.21 Premium   E     SI1      59.8    61   326  3.89  3.84  2.31
 3  0.23 Good      E     VS1      56.9    65   327  4.05  4.07  2.31
 4  0.29 Premium   I     VS2      62.4    58   334  4.2   4.23  2.63
 5  0.31 Good      J     SI2      63.3    58   335  4.34  4.35  2.75
 6  0.24 Very Good J     VVS2     62.8    57   336  3.94  3.96  2.48
 7  0.24 Very Good I     VVS1     62.3    57   336  3.95  3.98  2.47
 8  0.26 Very Good H     SI1      61.9    55   337  4.07  4.11  2.53
 9  0.22 Fair      E     VS2      65.1    61   337  3.87  3.78  2.49
10  0.23 Very Good H     VS1      59.4    61   338  4     4.05  2.39
# ℹ 53,930 more rows

# 采用SQL对数据库进行查询，并获取数据
sql <- "
  SELECT carat, cut, clarity, color, price 
  FROM diamonds 
  WHERE price > 15000
"
as_tibble(dbGetQuery(con, sql))

# A tibble: 1,655 × 5
   carat cut       clarity color price
   <dbl> <fct>     <fct>   <fct> <int>
 1  1.54 Premium   VS2     E     15002
 2  1.19 Ideal     VVS1    F     15005
 3  2.1  Premium   SI1     I     15007
 4  1.69 Ideal     SI1     D     15011
 5  1.5  Very Good VVS2    G     15013
 6  1.73 Very Good VS1     G     15014
 7  2.02 Premium   SI2     G     15014
 8  2.05 Very Good SI2     F     15017
 9  1.5  Very Good VS1     F     15022
10  1.82 Very Good SI1     G     15025
# ℹ 1,645 more rows
…
<SQL>
SELECT carat, cut, color, clarity, price
FROM diamonds
WHERE (price > 15000.0)

获取完整数据

big_diamonds <- big_diamonds_db |> 
  collect()
big_diamonds

# A tibble: 1,655 × 5
   carat cut       color clarity price
   <dbl> <fct>     <fct> <fct>   <int>
 1  1.54 Premium   E     VS2     15002
 2  1.19 Ideal     F     VVS1    15005
 3  2.1  Premium   I     SI1     15007
 4  1.69 Ideal     D     SI1     15011
 5  1.5  Very Good G     VVS2    15013
 6  1.73 Very Good G     VS1     15014
 7  2.02 Premium   G     SI2     15014
 8  2.05 Very Good F     SI2     15017
 9  1.5  Very Good F     VS1     15022
10  1.82 Very Good G     SI1     15025
# ℹ 1,645 more rows
…
获取每年的借阅总数

seattle_csv |> 
  group_by(CheckoutYear) |> 
  summarise(Checkouts = sum(Checkouts)) |> 
  arrange(CheckoutYear) |> 
  collect()
#> # A tibble: 18 × 2
#>   CheckoutYear Checkouts
#>          <int>     <int>
#> 1         2005   3798685
#> 2         2006   6599318
#> 3         2007   7126627
#> 4         2008   8438486
#> 5         2009   9135167
#> 6         2010   8608966
#> # ℹ 12 more rows
…
# 指定分区存储路径
pq_path <- "data/seattle-library-checkouts"

# 按照借阅年份进行分区，分成18个区块
seattle_csv |>
  group_by(CheckoutYear) |>
  write_dataset(path = pq_path, format = "parquet")

# 展示分好的区块
tibble(
  files = list.files(pq_path, recursive = TRUE),
  size_MB = file.size(file.path(pq_path, files)) / 1024^2
)
#> # A tibble: 18 × 2
#>   files                            size_MB
#>   <chr>                              <dbl>
#> 1 CheckoutYear=2005/part-0.parquet    109.
#> 2 CheckoutYear=2006/part-0.parquet    164.
#> 3 CheckoutYear=2007/part-0.parquet    178.
#> 4 CheckoutYear=2008/part-0.parquet    195.
#> 5 CheckoutYear=2009/part-0.parquet    214.
#> 6 CheckoutYear=2010/part-0.parquet    222.
#> # ℹ 12 more rows
…
使用Arrow支持的dplyr

seattle_pq <- open_dataset(pq_path)

# 统计过去五年内每月借出的图书总数
query <- seattle_pq |> 
  filter(CheckoutYear >= 2018, MaterialType == "BOOK") |>
  group_by(CheckoutYear, CheckoutMonth) |>
  summarize(TotalCheckouts = sum(Checkouts)) |>
  arrange(CheckoutYear, CheckoutMonth)

# 获取数据结果
query |> collect()
#> # A tibble: 58 × 3
#> # Groups:   CheckoutYear [5]
#>   CheckoutYear CheckoutMonth TotalCheckouts
#>          <int>         <int>          <int>
#> 1         2018             1         355101
#> 2         2018             2         309813
#> 3         2018             3         344487
#> 4         2018             4         330988
#> 5         2018             5         318049
#> 6         2018             6         341825
#> # ℹ 52 more rows
…
数据为6行1列，列表列为不等长的未命名列表

# 解除嵌套，将每个列表元素列为单独一行
repos |> 
  unnest_longer(json)

# A tibble: 176 × 1
   json             
   <list>           
 1 <named list [68]>
 2 <named list [68]>
 3 <named list [68]>
 4 <named list [68]>
 5 <named list [68]>
 6 <named list [68]>
 7 <named list [68]>
 8 <named list [68]>
 9 <named list [68]>
10 <named list [68]>
# ℹ 166 more rows

解除完依然是列表，但是获得等长的命名列表。

# 解除嵌套，将每个列表元素置入相应列
repos |> 
  unnest_longer(json) |> 
  unnest_wider(json) 

# A tibble: 176 × 68
        id name  full_name owner        private html_url description fork  url  
     <int> <chr> <chr>     <list>       <lgl>   <chr>    <chr>       <lgl> <chr>
 1  6.12e7 after gaborcsa… <named list> FALSE   https:/… Run Code i… FALSE http…
 2  4.05e7 argu… gaborcsa… <named list> FALSE   https:/… Declarativ… FALSE http…
 3  3.64e7 ask   gaborcsa… <named list> FALSE   https:/… Friendly C… FALSE http…
 4  3.49e7 base… gaborcsa… <named list> FALSE   https:/… Do we get … FALSE http…
 5  6.16e7 cite… gaborcsa… <named list> FALSE   https:/… Test R pac… TRUE  http…
 6  3.39e7 clis… gaborcsa… <named list> FALSE   https:/… Unicode sy… FALSE http…
 7  3.72e7 cmak… gaborcsa… <named list> FALSE   https:/… port of cm… TRUE  http…
 8  6.80e7 cmark gaborcsa… <named list> FALSE   https:/… CommonMark… TRUE  http…
 9  6.32e7 cond… gaborcsa… <named list> FALSE   https:/… <NA>        TRUE  http…
10  2.43e7 cray… gaborcsa… <named list> FALSE   https:/… R package … FALSE http…
# ℹ 166 more rows
# ℹ 59 more variables: forks_url <chr>, keys_url <chr>,
#   collaborators_url <chr>, teams_url <chr>, hooks_url <chr>,
#   issue_events_url <chr>, events_url <chr>, assignees_url <chr>,
#   branches_url <chr>, tags_url <chr>, blobs_url <chr>, git_tags_url <chr>,
#   git_refs_url <chr>, trees_url <chr>, statuses_url <chr>,
#   languages_url <chr>, stargazers_url <chr>, contributors_url <chr>, …

得到68列，挑选一些列查看。

repos |> 
  unnest_longer(json) |> 
  unnest_wider(json) |> 
  select(id, full_name, owner, description)

# A tibble: 176 × 4
         id full_name               owner             description               
      <int> <chr>                   <list>            <chr>                     
 1 61160198 gaborcsardi/after       <named list [17]> Run Code in the Background
 2 40500181 gaborcsardi/argufy      <named list [17]> Declarative function argu…
 3 36442442 gaborcsardi/ask         <named list [17]> Friendly CLI interaction …
 4 34924886 gaborcsardi/baseimports <named list [17]> Do we get warnings for un…
 5 61620661 gaborcsardi/citest      <named list [17]> Test R package and repo f…
 6 33907457 gaborcsardi/clisymbols  <named list [17]> Unicode symbols for CLI a…
 7 37236467 gaborcsardi/cmaker      <named list [17]> port of cmake to r        
 8 67959624 gaborcsardi/cmark       <named list [17]> CommonMark parsing and re…
 9 63152619 gaborcsardi/conditions  <named list [17]> <NA>                      
10 24343686 gaborcsardi/crayon      <named list [17]> R package for colored ter…
# ℹ 166 more rows

对owner进行解除嵌套。

repos |> 
  unnest_longer(json) |> 
  unnest_wider(json) |> 
  select(id, full_name, owner, description) |> 
  unnest_wider(owner, names_sep = "_")

# A tibble: 176 × 20
         id full_name    owner_login owner_id owner_avatar_url owner_gravatar_id
      <int> <chr>        <chr>          <int> <chr>            <chr>            
 1 61160198 gaborcsardi… gaborcsardi   660288 https://avatars… ""               
 2 40500181 gaborcsardi… gaborcsardi   660288 https://avatars… ""               
 3 36442442 gaborcsardi… gaborcsardi   660288 https://avatars… ""               
 4 34924886 gaborcsardi… gaborcsardi   660288 https://avatars… ""               
 5 61620661 gaborcsardi… gaborcsardi   660288 https://avatars… ""               
 6 33907457 gaborcsardi… gaborcsardi   660288 https://avatars… ""               
 7 37236467 gaborcsardi… gaborcsardi   660288 https://avatars… ""               
 8 67959624 gaborcsardi… gaborcsardi   660288 https://avatars… ""               
 9 63152619 gaborcsardi… gaborcsardi   660288 https://avatars… ""               
10 24343686 gaborcsardi… gaborcsardi   660288 https://avatars… ""               
# ℹ 166 more rows
# ℹ 14 more variables: owner_url <chr>, owner_html_url <chr>,
#   owner_followers_url <chr>, owner_following_url <chr>,
#   owner_gists_url <chr>, owner_starred_url <chr>,
#   owner_subscriptions_url <chr>, owner_organizations_url <chr>,
#   owner_repos_url <chr>, owner_events_url <chr>,
#   owner_received_events_url <chr>, owner_type <chr>, …

关系型数据

权力的游戏中的角色信息

chars <- tibble(json = got_chars)
chars

# A tibble: 30 × 1
   json             
   <list>           
 1 <named list [18]>
 2 <named list [18]>
 3 <named list [18]>
 4 <named list [18]>
 5 <named list [18]>
 6 <named list [18]>
 7 <named list [18]>
 8 <named list [18]>
 9 <named list [18]>
10 <named list [18]>
# ℹ 20 more rows

按命名列表列解除嵌套

chars |> 
  unnest_wider(json)

# A tibble: 30 × 18
   url           id name  gender culture born  died  alive titles aliases father
   <chr>      <int> <chr> <chr>  <chr>   <chr> <chr> <lgl> <list> <list>  <chr> 
 1 https://w…  1022 Theo… Male   "Ironb… "In … ""    TRUE  <chr>  <chr>   ""    
 2 https://w…  1052 Tyri… Male   ""      "In … ""    TRUE  <chr>  <chr>   ""    
 3 https://w…  1074 Vict… Male   "Ironb… "In … ""    TRUE  <chr>  <chr>   ""    
 4 https://w…  1109 Will  Male   ""      ""    "In … FALSE <chr>  <chr>   ""    
 5 https://w…  1166 Areo… Male   "Norvo… "In … ""    TRUE  <chr>  <chr>   ""    
 6 https://w…  1267 Chett Male   ""      "At … "In … FALSE <chr>  <chr>   ""    
 7 https://w…  1295 Cres… Male   ""      "In … "In … FALSE <chr>  <chr>   ""    
 8 https://w…   130 Aria… Female "Dorni… "In … ""    TRUE  <chr>  <chr>   ""    
 9 https://w…  1303 Daen… Female "Valyr… "In … ""    TRUE  <chr>  <chr>   ""    
10 https://w…  1319 Davo… Male   "Weste… "In … ""    TRUE  <chr>  <chr>   ""    
# ℹ 20 more rows
# ℹ 7 more variables: mother <chr>, spouse <chr>, allegiances <list>,
#   books <list>, povBooks <list>, tvSeries <list>, playedBy <list>

检查列表列

chars |> 
  unnest_wider(json) |> 
  select(id, where(is.list))

# A tibble: 30 × 8
      id titles    aliases    allegiances books     povBooks  tvSeries  playedBy
   <int> <list>    <list>     <list>      <list>    <list>    <list>    <list>  
 1  1022 <chr [2]> <chr [4]>  <chr [1]>   <chr [3]> <chr [2]> <chr [6]> <chr>   
 2  1052 <chr [2]> <chr [11]> <chr [1]>   <chr [2]> <chr [4]> <chr [6]> <chr>   
 3  1074 <chr [2]> <chr [1]>  <chr [1]>   <chr [3]> <chr [2]> <chr [1]> <chr>   
 4  1109 <chr [1]> <chr [1]>  <NULL>      <chr [1]> <chr [1]> <chr [1]> <chr>   
 5  1166 <chr [1]> <chr [1]>  <chr [1]>   <chr [3]> <chr [2]> <chr [2]> <chr>   
 6  1267 <chr [1]> <chr [1]>  <NULL>      <chr [2]> <chr [1]> <chr [1]> <chr>   
 7  1295 <chr [1]> <chr [1]>  <NULL>      <chr [2]> <chr [1]> <chr [1]> <chr>   
 8   130 <chr [1]> <chr [1]>  <chr [1]>   <chr [4]> <chr [1]> <chr [1]> <chr>   
 9  1303 <chr [5]> <chr [11]> <chr [1]>   <chr [1]> <chr [4]> <chr [6]> <chr>   
10  1319 <chr [4]> <chr [5]>  <chr [2]>   <chr [1]> <chr [3]> <chr [5]> <chr>   
# ℹ 20 more rows

对称号李表列进行解除嵌套，解除后的数据可以采用连接（join）与主数据合并成结构化数据框。

titles <- chars |> 
  unnest_wider(json) |> 
  select(id, titles) |> 
  unnest_longer(titles) |> 
  filter(titles != "") |> 
  rename(title = titles)
titles

# A tibble: 52 × 2
      id title                                                                  
   <int> <chr>                                                                  
 1  1022 Prince of Winterfell                                                   
 2  1022 Lord of the Iron Islands (by law of the green lands)                   
 3  1052 Acting Hand of the King (former)                                       
 4  1052 Master of Coin (former)                                                
 5  1074 Lord Captain of the Iron Fleet                                         
 6  1074 Master of the Iron Victory                                             
 7  1166 Captain of the Guard at Sunspear                                       
 8  1295 Maester                                                                
 9   130 Princess of Dorne                                                      
10  1303 Queen of the Andals and the Rhoynar and the First Men, Lord of the Sev…
# ℹ 42 more rows
…
