机器学习基础 – course
…
3.6 分类型特征的转换

大多数模型要求预测变量采用数值形式。但是也有例外，例如，基于决策树的模型可以处理数值或分类特征。分类型特征预处理也能提升相关模型的训练效率。

合并（Lumping）

有时类别特征会包含频次很少的取值。例如，Ames住房数据中有28个社区，但其中属于几个社区的观测值很少。

count(ames_train, Neighborhood) %>% arrange(n)
## # A tibble: 28 × 2
##    Neighborhood            n
##    <fct>               <int>
##  1 Landmark                1
##  2 Green_Hills             2
##  3 Greens                  3
##  4 Blueste                 8
##  5 Veenker                15
##  6 Northpark_Villa        17
##  7 Bloomington_Heights    18
##  8 Meadow_Village         22
##  9 Briardale              23
## 10 Clear_Creek            26
## # ℹ 18 more rows

可以将这些水平合并（lumping）成较少的类别。例如，将训练样本中观测值少于10%的所有水平合并为“其他”类别。可以使用step_other()来实现。不过，使用合并应谨慎，因为会导致模型性能下降。基于决策树的模型通常在高基数特征（分类变量中包含非常多的、不重复的类别，例如，邮编、城市名等）上表现非常好，且不受低代表性水平的影响。

# 对特征进行水平合并
lumping <- recipe(Sale_Price ~ ., data = ames_train) %>%
  step_other(Neighborhood, threshold = 0.01, 
             other = "other") 

# 应用配方
apply_2_training <- prep(lumping, training = ames_train) %>%
  bake(ames_train)

# Neighborhood的新分布
count(apply_2_training, Neighborhood) %>% arrange(n)
## # A tibble: 22 × 2
##    Neighborhood                                n
##    <fct>                                   <int>
##  1 Meadow_Village                             22
##  2 Briardale                                  23
##  3 Clear_Creek                                26
##  4 South_and_West_of_Iowa_State_University    32
##  5 Stone_Brook                                40
##  6 Northridge                                 51
##  7 Timberland                                 52
##  8 other                                      64
##  9 Brookside                                  74
## 10 Crawford                                   75
## # ℹ 12 more rows
…
最后，使用bake()将蓝图应用于新数据（例如，训练数据或未来的测试数据）。

baked_train <- bake(prepare, new_data = ames_train)
baked_test <- bake(prepare, new_data = ames_test)
baked_train
## # A tibble: 2,049 × 27
##    MS_SubClass MS_Zoning Lot_Shape Lot_Config Neighborhood Bldg_Type House_Style
##    <fct>       <fct>     <fct>     <fct>      <fct>        <fct>     <fct>      
##  1 Two_Story_… Resident… Regular   Inside     Briardale    Twnhs     Two_Story  
##  2 Two_Story_… Resident… Regular   Inside     Briardale    Twnhs     Two_Story  
##  3 One_Story_… Resident… Regular   FR2        Northpark_V… Twnhs     One_Story  
##  4 One_Story_… Resident… Regular   Inside     Sawyer_West  TwnhsE    One_Story  
##  5 One_Story_… Resident… Regular   Corner     Sawyer_West  OneFam    One_Story  
##  6 Duplex_All… Resident… Regular   Inside     Sawyer       Duplex    One_and_Ha…
##  7 One_Story_… Resident… Slightly… Inside     Sawyer       OneFam    One_Story  
##  8 One_Story_… Resident… Slightly… Corner     Sawyer       OneFam    One_Story  
##  9 Duplex_All… Resident… Slightly… Inside     North_Ames   Duplex    One_Story  
## 10 One_Story_… Resident… Regular   Inside     North_Ames   OneFam    One_Story  
## # ℹ 2,039 more rows
## # ℹ 20 more variables: Roof_Style <fct>, Exterior_1st <fct>,
## #   Exterior_2nd <fct>, Mas_Vnr_Type <fct>, Foundation <fct>,
## #   Bsmt_Exposure <fct>, BsmtFin_Type_1 <fct>, Central_Air <fct>,
## #   Electrical <fct>, Garage_Type <fct>, Garage_Finish <fct>,
## #   Paved_Drive <fct>, Fence <fct>, Sale_Type <fct>, Sale_Price <int>,
## #   PC1 <dbl>, PC2 <dbl>, PC3 <dbl>, PC4 <dbl>, PC5 <dbl>
…
