有监督学习：回归模型 – course
…
多元线性模型可以包含任意多的预测变量，只要数据的行数多于参数数量即可。具有 (p) 个不同预测变量的通用多元线性回归模型为：

\[ Y = \beta_0 + \beta_1 X_1 + \beta_2 X_2 + \dots + \beta_p X_p + \epsilon, \]

其中 \(X_i\)（对于 \(i = 1, 2, \dots, p\)）是预测变量。

# 包含所有可能的主效应
model3 <- lm(Sale_Price ~ ., data = ames_train)

# 以整洁的数据框形式打印估计系数
broom::tidy(model3)
## # A tibble: 300 × 5
##    term                                     estimate std.error statistic p.value
##    <chr>                                       <dbl>     <dbl>     <dbl>   <dbl>
##  1 (Intercept)                               -2.73e7 11016450.   -2.47    0.0134
##  2 MS_SubClassOne_Story_1945_and_Older        3.90e3     3575.    1.09    0.275 
##  3 MS_SubClassOne_Story_with_Finished_Atti…  -5.39e3    12164.   -0.443   0.658 
##  4 MS_SubClassOne_and_Half_Story_Unfinishe…  -4.41e2    13942.   -0.0316  0.975 
##  5 MS_SubClassOne_and_Half_Story_Finished_…   1.04e3     7250.    0.143   0.886 
##  6 MS_SubClassTwo_Story_1946_and_Newer       -6.67e3     5510.   -1.21    0.226 
##  7 MS_SubClassTwo_Story_1945_and_Older        1.57e3     6074.    0.259   0.795 
##  8 MS_SubClassTwo_and_Half_Story_All_Ages     3.41e3    10149.    0.336   0.737 
##  9 MS_SubClassSplit_or_Multilevel            -6.67e3    11673.   -0.571   0.568 
## 10 MS_SubClassSplit_Foyer                     1.49e3     7512.    0.199   0.843 
## # ℹ 290 more rows
…
